<svg width="16" height="18" viewBox="0 0 16 18" fill="none" xmlns="http://www.w3.org/2000/svg">
<path d="M13.1762 5.47058L12.7447 15.826C12.7231 16.3444 12.2829 16.7647 11.7644 16.7647H4.23501C3.71521 16.7647 3.27624 16.3426 3.25472 15.826L2.82324 5.47058" stroke="#5C94E4" stroke-linecap="round" stroke-linejoin="round"/>
<path d="M8 6.41174V14.4117" stroke="#5C94E4" stroke-linecap="round" stroke-linejoin="round"/>
<path d="M5.41113 6.41174L5.64643 14.4117" stroke="#5C94E4" stroke-linecap="round" stroke-linejoin="round"/>
<path d="M10.5878 6.41174L10.3525 14.4117" stroke="#5C94E4" stroke-linecap="round" stroke-linejoin="round"/>
<path d="M2.11719 3.47058H13.8819" stroke="#5C94E4" stroke-linecap="round" stroke-linejoin="round"/>
<path d="M5.64648 3.11764L5.89143 2.26034C6.01605 1.82417 6.4849 1.47058 6.9386 1.47058H9.06025C9.51397 1.47058 9.98273 1.82392 10.1074 2.26034L10.3524 3.11764" stroke="#5C94E4"/>
</svg>
