<svg width="18" height="18" viewBox="0 0 18 18" fill="none" xmlns="http://www.w3.org/2000/svg">
<g opacity="0.5">
<path d="M11.25 9C11.25 10.2405 10.2405 11.25 9 11.25C7.7595 11.25 6.75 10.2405 6.75 9C6.75 7.7595 7.7595 6.75 9 6.75C10.2405 6.75 11.25 7.7595 11.25 9ZM18 8.66325C18 8.66325 14.811 14.25 9.01125 14.25C3.62625 14.25 0 8.66325 0 8.66325C0 8.66325 3.3345 3.75 9.01125 3.75C14.7817 3.75 18 8.66325 18 8.66325ZM12.75 9C12.75 6.92925 11.0715 5.25 9 5.25C6.92925 5.25 5.25 6.92925 5.25 9C5.25 11.0715 6.92925 12.75 9 12.75C11.0715 12.75 12.75 11.0715 12.75 9Z" fill="black"/>
</g>
</svg>
