<svg width="18" height="18" viewBox="0 0 18 18" fill="none" xmlns="http://www.w3.org/2000/svg">
<g opacity="0.5" clip-path="url(#clip0)">
<path d="M17.8414 3.57617L12.3823 9.00004L17.8414 14.4239C17.94 14.2177 17.9999 13.9896 17.9999 13.7461V4.25395C17.9999 4.01042 17.94 3.78243 17.8414 3.57617Z" fill="black"/>
<path d="M16.418 2.67188H1.58207C1.33855 2.67188 1.11056 2.73175 0.904297 2.83043L7.88151 9.77249C8.49843 10.3894 9.50165 10.3894 10.1186 9.77249L17.0958 2.83043C16.8895 2.73175 16.6615 2.67188 16.418 2.67188Z" fill="black"/>
<path d="M0.158555 3.57617C0.0598711 3.78243 0 4.01042 0 4.25395V13.7461C0 13.9897 0.0598711 14.2177 0.158555 14.4239L5.61758 9.00004L0.158555 3.57617Z" fill="black"/>
<path d="M11.6368 9.74518L10.8643 10.5177C9.83634 11.5456 8.16371 11.5456 7.13578 10.5177L6.36332 9.74518L0.904297 15.169C1.11056 15.2677 1.33855 15.3276 1.58207 15.3276H16.418C16.6615 15.3276 16.8895 15.2677 17.0958 15.169L11.6368 9.74518Z" fill="black"/>
</g>
<defs>
<clipPath id="clip0">
<rect width="18" height="18" fill="white"/>
</clipPath>
</defs>
</svg>
